<?xml version="1.0" encoding="UTF-8" standalone="no"?>
<svg
   xmlns:dc="http://purl.org/dc/elements/1.1/"
   xmlns:cc="http://creativecommons.org/ns#"
   xmlns:rdf="http://www.w3.org/1999/02/22-rdf-syntax-ns#"
   xmlns:svg="http://www.w3.org/2000/svg"
   xmlns="http://www.w3.org/2000/svg"
   xmlns:sodipodi="http://sodipodi.sourceforge.net/DTD/sodipodi-0.dtd"
   xmlns:inkscape="http://www.inkscape.org/namespaces/inkscape"
   id="svg8"
   version="1.1"
   viewBox="0 0 128 128"
   height="128"
   width="128"
   sodipodi:docname="title.svg"
   inkscape:version="0.92.5 (2060ec1f9f, 2020-04-08)">
  <sodipodi:namedview
     pagecolor="#ffffff"
     bordercolor="#666666"
     borderopacity="1"
     objecttolerance="10"
     gridtolerance="10"
     guidetolerance="10"
     inkscape:pageopacity="0"
     inkscape:pageshadow="2"
     inkscape:window-width="869"
     inkscape:window-height="480"
     id="namedview31"
     showgrid="false"
     inkscape:zoom="1.261512"
     inkscape:cx="77.930601"
     inkscape:cy="85.17482"
     inkscape:window-x="0"
     inkscape:window-y="0"
     inkscape:window-maximized="0"
     inkscape:current-layer="svg8"
     units="px" />
  <defs
     id="defs2">
    <marker
       orient="auto"
       refY="0"
       refX="0"
       id="Arrow1Send"
       style="overflow:visible">
      <path
         id="path1018"
         d="M 0,0 5,-5 -12.5,0 5,5 Z"
         style="fill:#9b9b9b;fill-opacity:1;fill-rule:evenodd;stroke:#9b9b9b;stroke-width:1.00000003pt;stroke-opacity:1"
         transform="matrix(-0.2,0,0,-0.2,-1.2,0)"
         inkscape:connector-curvature="0" />
    </marker>
    <marker
       orient="auto"
       refY="0"
       refX="0"
       id="Arrow2Mend"
       style="overflow:visible">
      <path
         id="path1030"
         style="fill:#000000;fill-opacity:1;fill-rule:evenodd;stroke:#000000;stroke-width:0.625;stroke-linejoin:round;stroke-opacity:1"
         d="M 8.7185878,4.0337352 -2.2072895,0.01601326 8.7185884,-4.0017078 c -1.7454984,2.3720609 -1.7354408,5.6174519 -6e-7,8.035443 z"
         transform="scale(-0.6)"
         inkscape:connector-curvature="0" />
    </marker>
    <marker
       orient="auto"
       refY="0"
       refX="0"
       id="Arrow2Lend"
       style="overflow:visible">
      <path
         id="path1024"
         style="fill:#000000;fill-opacity:1;fill-rule:evenodd;stroke:#000000;stroke-width:0.625;stroke-linejoin:round;stroke-opacity:1"
         d="M 8.7185878,4.0337352 -2.2072895,0.01601326 8.7185884,-4.0017078 c -1.7454984,2.3720609 -1.7354408,5.6174519 -6e-7,8.035443 z"
         transform="matrix(-1.1,0,0,-1.1,-1.1,0)"
         inkscape:connector-curvature="0" />
    </marker>
    <marker
       orient="auto"
       refY="0"
       refX="0"
       id="Arrow1Send-2"
       style="overflow:visible">
      <path
         id="path1018-7"
         d="M 0,0 5,-5 -12.5,0 5,5 Z"
         style="fill:#9b9b9b;fill-opacity:1;fill-rule:evenodd;stroke:#9b9b9b;stroke-width:1.00000003pt;stroke-opacity:1"
         transform="matrix(-0.2,0,0,-0.2,-1.2,0)"
         inkscape:connector-curvature="0" />
    </marker>
    <marker
       orient="auto"
       refY="0"
       refX="0"
       id="Arrow1Send-2-9"
       style="overflow:visible">
      <path
         id="path1018-7-3"
         d="M 0,0 5,-5 -12.5,0 5,5 Z"
         style="fill:#9b9b9b;fill-opacity:1;fill-rule:evenodd;stroke:#9b9b9b;stroke-width:1.00000003pt;stroke-opacity:1"
         transform="matrix(-0.2,0,0,-0.2,-1.2,0)"
         inkscape:connector-curvature="0" />
    </marker>
    <marker
       orient="auto"
       refY="0"
       refX="0"
       id="Arrow1Send-2-9-0"
       style="overflow:visible">
      <path
         id="path1018-7-3-6"
         d="M 0,0 5,-5 -12.5,0 5,5 Z"
         style="fill:#9b9b9b;fill-opacity:1;fill-rule:evenodd;stroke:#9b9b9b;stroke-width:1.00000003pt;stroke-opacity:1"
         transform="matrix(-0.2,0,0,-0.2,-1.2,0)"
         inkscape:connector-curvature="0" />
    </marker>
  </defs>
  <metadata
     id="metadata5">
    <rdf:RDF>
      <cc:Work
         rdf:about="">
        <dc:format>image/svg+xml</dc:format>
        <dc:type
           rdf:resource="http://purl.org/dc/dcmitype/StillImage" />
        <dc:title></dc:title>
      </cc:Work>
    </rdf:RDF>
  </metadata>
  <g
     transform="matrix(2.3777014,0,0,2.3777014,-108.00477,-110.44734)"
     id="layer1">
    <g
       transform="translate(-17.241383,-57.950555)"
       id="g1059">
      <text
         id="text955"
         y="135.47247"
         x="64.950447"
         style="font-size:24.18479919px;line-height:109.05999756px;font-family:FreeSans;-inkscape-font-specification:'FreeSans, Normal';letter-spacing:0px;word-spacing:0px;writing-mode:lr-tb;fill:#000000;stroke:#000000;stroke-width:1.51154995px;stroke-linecap:butt;stroke-linejoin:miter;stroke-opacity:1"
         xml:space="preserve"><tspan
           style="fill:#000000;stroke-width:1.51154995px"
           y="135.47247"
           x="64.950447"
           id="tspan953">H1</tspan></text>
      <text
         id="text955-3"
         y="135.83215"
         x="98.637383"
         style="font-size:12.67510033px;line-height:57.15750122px;font-family:FreeSans;-inkscape-font-specification:'FreeSans, Normal';letter-spacing:0px;word-spacing:0px;writing-mode:lr-tb;fill:#000000;stroke:#000000;stroke-width:0.79219103px;stroke-linecap:butt;stroke-linejoin:miter;stroke-opacity:1"
         xml:space="preserve"><tspan
           style="fill:#000000;stroke-width:0.79219103px"
           y="135.83215"
           x="98.637383"
           id="tspan953-6">H2</tspan></text>
      <text
         id="text955-3-7"
         y="145.90858"
         x="65.777"
         style="font-size:7.22981977px;line-height:32.60229874px;font-family:FreeSans;-inkscape-font-specification:'FreeSans, Normal';letter-spacing:0px;word-spacing:0px;writing-mode:lr-tb;fill:#000000;stroke:#000000;stroke-width:0.45186299px;stroke-linecap:butt;stroke-linejoin:miter;stroke-opacity:1"
         xml:space="preserve"><tspan
           style="fill:#000000;stroke-width:0.45186299px"
           y="145.90858"
           x="65.777"
           id="tspan953-6-5">H3</tspan></text>
      <text
         id="text955-3-7-3"
         y="146.15036"
         x="83.730453"
         style="font-size:4.81386995px;line-height:21.70770073px;font-family:FreeSans;-inkscape-font-specification:'FreeSans, Normal';letter-spacing:0px;word-spacing:0px;writing-mode:lr-tb;fill:#000000;stroke:#000000;stroke-width:0.30086601px;stroke-linecap:butt;stroke-linejoin:miter;stroke-opacity:1"
         xml:space="preserve"><tspan
           style="fill:#000000;stroke-width:0.30086601px"
           y="146.15036"
           x="83.730453"
           id="tspan953-6-5-5">H4</tspan></text>
      <text
         id="text955-3-7-3-6"
         y="146.1237"
         x="98.786972"
         style="font-size:3.26430988px;line-height:14.7201004px;font-family:FreeSans;-inkscape-font-specification:'FreeSans, Normal';letter-spacing:0px;word-spacing:0px;writing-mode:lr-tb;fill:#000000;stroke:#000000;stroke-width:0.204018px;stroke-linecap:butt;stroke-linejoin:miter;stroke-opacity:1"
         xml:space="preserve"><tspan
           style="fill:#000000;stroke-width:0.204018px"
           y="146.1237"
           x="98.786972"
           id="tspan953-6-5-5-2">H5</tspan></text>
      <text
         id="text955-3-7-3-6-9"
         y="146.18303"
         x="111.90253"
         style="font-size:2.17084002px;line-height:9.78921986px;font-family:FreeSans;-inkscape-font-specification:'FreeSans, Normal';letter-spacing:0px;word-spacing:0px;writing-mode:lr-tb;fill:#000000;stroke:#000000;stroke-width:0.13567699px;stroke-linecap:butt;stroke-linejoin:miter;stroke-opacity:1"
         xml:space="preserve"><tspan
           style="fill:#000000;stroke-width:0.13567699px"
           y="146.18303"
           x="111.90253"
           id="tspan953-6-5-5-2-1">H6</tspan></text>
    </g>
  </g>
</svg>
