<?xml version="1.0" encoding="UTF-8" standalone="no"?>
<svg
   xmlns:dc="http://purl.org/dc/elements/1.1/"
   xmlns:cc="http://creativecommons.org/ns#"
   xmlns:rdf="http://www.w3.org/1999/02/22-rdf-syntax-ns#"
   xmlns:svg="http://www.w3.org/2000/svg"
   xmlns="http://www.w3.org/2000/svg"
   xmlns:xlink="http://www.w3.org/1999/xlink"
   height="128"
   width="128"
   version="1.1"
   id="svg3145">
  <metadata
     id="metadata3151">
    <rdf:RDF>
      <cc:Work
         rdf:about="">
        <dc:format>image/svg+xml</dc:format>
        <dc:type
           rdf:resource="http://purl.org/dc/dcmitype/StillImage" />
        <dc:title></dc:title>
      </cc:Work>
    </rdf:RDF>
  </metadata>
  <defs
     id="defs3149">
    <clipPath
       id="clipPath18"
       clipPathUnits="userSpaceOnUse">
      <path
         id="path20"
         d="m 258.16,174.727 c -0.887,-28.672 -1.769,-62.207 -1.328,-101.3286 l -1.324,0 c -9.285,33.1446 -21.66,70.7816 -31.387,98.3596 l -29.617,87.539 -62.332,0 -25.195,-87.168 C 99.4648,144.922 90.1797,107.676 83.5508,73.3984 l -0.8867,0 C 80.8984,108.789 79.1328,146.055 77.8008,174.727 l -4.418,89.785 -73.3828,0 18.125,-251.094 107.418,0 19.891,67.4218 c 7.961,27.9492 16.796,61.4842 22.988,92.0312 l 1.769,0 c 8.399,-30.547 18.125,-65.937 26.961,-92.4022 l 22.106,-67.0508 105.207,0 15.027,251.094 -77.797,0 -3.535,-89.785 z" />
    </clipPath>
    <linearGradient
       id="linearGradient22"
       spreadMethod="pad"
       gradientTransform="matrix(-4.97e-6,113.622,113.622,4.97e-6,16.9746,5.4072)"
       gradientUnits="userSpaceOnUse"
       y2="0"
       x2="1"
       y1="0"
       x1="0">
      <stop
         id="stop24"
         offset="0"
         style="stop-opacity:1;stop-color:#ffffff" />
      <stop
         id="stop26"
         offset="1"
         style="stop-opacity:1;stop-color:#bab9b7" />
    </linearGradient>
    <clipPath
       id="clipPath34"
       clipPathUnits="userSpaceOnUse">
      <path
         id="path36"
         d="m 484.043,180.684 c -32.27,0 -50.836,7.832 -50.836,23.847 0,11.543 9.281,17.52 22.547,17.52 11.492,0 23.871,-6.699 27.406,-16.758 0.883,-2.988 0.883,-6.348 0.883,-9.688 l 0,-14.921 z m 77.359,39.121 c 0,18.261 0.883,35.39 3.536,44.707 l -71.614,0 -4.418,-16.016 -1.328,0 c -15.469,14.531 -37.129,20.117 -60.562,20.117 -44.203,0 -71.61,-27.187 -71.61,-57.734 0,-49.18 52.16,-70.801 125.985,-71.172 l 0,-1.484 c 0,-7.442 -6.629,-15.645 -35.368,-15.645 -22.98,0 -47.296,6.699 -61.445,13.789 L 370.434,93.5156 c 14.144,-5.957 45.093,-16.4062 90.179,-16.4062 74.707,0 100.789,35.0196 100.789,80.8596 l 0,61.836 z" />
    </clipPath>
    <linearGradient
       id="linearGradient38"
       spreadMethod="pad"
       gradientTransform="matrix(-4.97e-6,113.626,113.626,4.97e-6,46.0171,5.4062)"
       gradientUnits="userSpaceOnUse"
       y2="0"
       x2="1"
       y1="0"
       x1="0">
      <stop
         id="stop40"
         offset="0"
         style="stop-opacity:1;stop-color:#ffffff" />
      <stop
         id="stop42"
         offset="1"
         style="stop-opacity:1;stop-color:#bab9b7" />
    </linearGradient>
    <clipPath
       id="clipPath50"
       clipPathUnits="userSpaceOnUse">
      <path
         id="path52"
         d="m 684.73,29.0625 0,52.1484 45.094,0 0,49.1801 -45.094,0 0,52.539 c 0,21.992 6.192,30.918 25.204,30.918 9.281,0 12.375,0 19.007,-1.485 l 0,51.035 c -9.289,2.618 -26.968,5.215 -47.3,5.215 -23.426,0 -42.879,-7.07 -54.375,-16.758 -13.262,-11.171 -20.332,-29.433 -20.332,-57.382 l 0,-64.082 -26.961,0 0,-49.1801 26.961,0 0,-34.6289 77.796,-17.5195 z" />
    </clipPath>
    <linearGradient
       id="linearGradient54"
       spreadMethod="pad"
       gradientTransform="matrix(-4.97e-6,113.622,113.622,4.97e-6,65.4897,5.4072)"
       gradientUnits="userSpaceOnUse"
       y2="0"
       x2="1"
       y1="0"
       x1="0">
      <stop
         id="stop56"
         offset="0"
         style="stop-opacity:1;stop-color:#ffffff" />
      <stop
         id="stop58"
         offset="1"
         style="stop-opacity:1;stop-color:#bab9b7" />
    </linearGradient>
    <clipPath
       id="clipPath66"
       clipPathUnits="userSpaceOnUse">
      <path
         id="path68"
         d="m 766.953,0 79.57,0 0,100.586 0.879,0 c 7.52,-7.4415 15.918,-13.3985 25.645,-17.129 9.726,-4.1015 21.66,-6.3476 33.144,-6.3476 49.075,0 76.036,29.4336 76.036,81.2306 l 0,106.172 -79.571,0 0,-98.711 c 0,-21.621 -8.398,-34.649 -28.281,-34.649 -15.039,0 -22.109,7.442 -25.645,14.512 -1.765,2.988 -2.207,7.832 -2.207,10.82 l 0,108.028 -79.57,0 0,-264.512 z" />
    </clipPath>
    <linearGradient
       id="linearGradient70"
       spreadMethod="pad"
       gradientTransform="matrix(-4.97e-6,113.622,113.622,4.97e-6,87.459,5.4072)"
       gradientUnits="userSpaceOnUse"
       y2="0"
       x2="1"
       y1="0"
       x1="0">
      <stop
         id="stop72"
         offset="0"
         style="stop-opacity:1;stop-color:#ffffff" />
      <stop
         id="stop74"
         offset="1"
         style="stop-opacity:1;stop-color:#bab9b7" />
    </linearGradient>
    <clipPath
       id="clipPath82"
       clipPathUnits="userSpaceOnUse">
      <path
         id="path84"
         d="m 1091.42,13.418 80.01,0 0,154.98 c 0,73.028 -41.55,100.215 -113.17,100.215 -16.35,0 -38.01,-1.855 -53.05,-5.957 l 8.85,-54.023 c 9.73,2.246 22.1,4.101 34.92,4.101 25.64,0 42.44,-9.687 42.44,-44.336 l 0,-154.98 z" />
    </clipPath>
    <linearGradient
       id="linearGradient86"
       spreadMethod="pad"
       gradientTransform="matrix(-4.97e-6,113.622,113.622,4.97e-6,108.832,5.4072)"
       gradientUnits="userSpaceOnUse"
       y2="0"
       x2="1"
       y1="0"
       x1="0">
      <stop
         id="stop88"
         offset="0"
         style="stop-opacity:1;stop-color:#ffffff" />
      <stop
         id="stop90"
         offset="1"
         style="stop-opacity:1;stop-color:#bab9b7" />
    </linearGradient>
    <clipPath
       id="clipPath98"
       clipPathUnits="userSpaceOnUse">
      <path
         id="path100"
         d="m 1315.98,180.684 c -32.28,0 -50.84,7.832 -50.84,23.847 0,11.543 9.27,17.52 22.54,17.52 11.5,0 23.87,-6.699 27.41,-16.758 0.89,-2.988 0.89,-6.348 0.89,-9.688 l 0,-14.921 z m 77.35,39.121 c 0,18.261 0.89,35.39 3.54,44.707 l -71.62,0 -4.41,-16.016 -1.33,0 c -15.47,14.531 -37.13,20.117 -60.56,20.117 -44.2,0 -71.62,-27.187 -71.62,-57.734 0,-49.18 52.16,-70.801 125.99,-71.172 l 0,-1.484 c 0,-7.442 -6.63,-15.645 -35.37,-15.645 -22.98,0 -47.3,6.699 -61.45,13.789 l -14.14,-42.8514 c 14.14,-5.957 45.1,-16.4062 90.18,-16.4062 74.71,0 100.79,35.0196 100.79,80.8596 l 0,61.836 z" />
    </clipPath>
    <linearGradient
       id="linearGradient102"
       spreadMethod="pad"
       gradientTransform="matrix(-4.97e-6,113.626,113.626,4.97e-6,129.21,5.4062)"
       gradientUnits="userSpaceOnUse"
       y2="0"
       x2="1"
       y1="0"
       x1="0">
      <stop
         id="stop104"
         offset="0"
         style="stop-opacity:1;stop-color:#ffffff" />
      <stop
         id="stop106"
         offset="1"
         style="stop-opacity:1;stop-color:#bab9b7" />
    </linearGradient>
    <clipPath
       id="clipPath114"
       clipPathUnits="userSpaceOnUse">
      <path
         id="path116"
         d="m 1427.35,48.2813 c -8.71,0 -17.37,3.3085 -25.63,11.9531 -17.5,18.3398 -4.04,36.0156 19.82,40.4686 31.6,5.899 35.49,7.832 49.92,21.27 12.71,11.777 17.06,21.757 17.06,21.757 0,0 -70.84,46.387 -70.33,56.407 0.24,4.57 5.51,5.726 10.78,5.726 4.01,0 8.02,-0.668 9.82,-1.011 -3.59,3.66 -14.31,20.558 -2.72,30.421 13.19,11.184 23.99,13.786 34.62,13.786 5.4,0 10.75,-0.668 16.35,-1.227 16.63,-1.641 30.98,-19.766 30.52,-37.48 -0.2,-6.582 2.49,-20.977 11.4,-29.375 1.66,-1.551 3.81,-2.227 6.32,-2.227 11.01,0 28.83,12.992 41.05,21.934 25.55,18.632 17.24,33.789 32.71,41.621 7.27,3.668 14.06,5.504 20.95,5.504 7.78,0 15.68,-2.336 24.52,-7.008 16.69,-8.828 28.19,-24.238 5.37,-45.449 -9.22,-8.594 -42.17,-4.727 -65.92,-20.039 -12.92,-8.321 -19.25,-16.25 -19.25,-16.25 0,0 38.2,-30.684 56.04,-43.985 14.4,-10.781 17.43,-13.867 11.64,-17.5194 -1.05,-0.6602 -2.85,-0.9297 -5.09,-0.9297 -10.09,0 -29.1,5.4801 -29.1,5.4801 0,0 22.25,-11.7965 15.91,-24.9801 -2.93,-6.0937 -10.65,-15.4101 -26.24,-20.1562 -3.43,-1.0508 -6.98,-1.5508 -10.53,-1.5508 -12.51,0 -24.85,6.2617 -30.97,16.6289 -7.85,13.2812 -3.84,26.2305 -16.6,34.0622 -4.44,2.723 -9.54,4.047 -15.2,4.047 -10.64,0 -23.28,-4.676 -37.36,-13.5584 -21.58,-13.6133 -16.43,-31.7578 -37.25,-42.1289 -7.41,-3.6836 -15.03,-6.1914 -22.61,-6.1914" />
    </clipPath>
    <linearGradient
       id="linearGradient118"
       spreadMethod="pad"
       gradientTransform="matrix(-3.95e-6,90.3407,90.3407,3.95e-6,153.32,6.4716)"
       gradientUnits="userSpaceOnUse"
       y2="0"
       x2="1"
       y1="0"
       x1="0">
      <stop
         id="stop120"
         offset="0"
         style="stop-opacity:1;stop-color:#ffffff" />
      <stop
         id="stop122"
         offset="1"
         style="stop-opacity:1;stop-color:#c3c2c0" />
    </linearGradient>
    <clipPath
       id="clipPath130"
       clipPathUnits="userSpaceOnUse">
      <path
         id="path132"
         d="m 0,0 1672.66,0 0,574 L 0,574 0,0 z" />
    </clipPath>
    <clipPath
       id="clipPath3650"
       clipPathUnits="userSpaceOnUse">
      <rect
         y="-1.7164752"
         x="-2.2068965"
         height="129.71648"
         width="137.80843"
         id="rect3652"
         style="fill:#f4f4f4;fill-opacity:1;stroke:none" />
    </clipPath>
    <linearGradient
       id="linearGradient-1"
       y2="181.92058"
       x2="257.21965"
       y1="18.935974"
       x1="104.44516"
       gradientTransform="scale(1.0064904,0.99355149)"
       gradientUnits="userSpaceOnUse">
      <stop
         id="stop7"
         offset="0%"
         stop-color="#F9A03C" />
      <stop
         id="stop9"
         offset="100%"
         stop-color="#F7974E" />
    </linearGradient>
    <linearGradient
       id="linearGradient-2"
       y2="188.40465"
       x2="122.23597"
       y1="48.226913"
       x1="-21.491283"
       gradientTransform="scale(0.99750234,1.0025039)"
       gradientUnits="userSpaceOnUse">
      <stop
         id="stop12"
         offset="0%"
         stop-color="#F9A03C" />
      <stop
         id="stop14"
         offset="100%"
         stop-color="#F7974E" />
    </linearGradient>
    <linearGradient
       id="linearGradient-3"
       y2="246.03192"
       x2="172.57632"
       y1="98.811852"
       x1="44.167822"
       gradientTransform="scale(1.0137653,0.98642161)"
       gradientUnits="userSpaceOnUse">
      <stop
         id="stop17"
         offset="0%"
         stop-color="#F9A03C" />
      <stop
         id="stop19"
         offset="100%"
         stop-color="#F7974E" />
    </linearGradient>
    <linearGradient
       id="linearGradient-4"
       y2="229.18869"
       x2="205.2748"
       y1="-4.5329199"
       x1="28.214055"
       gradientTransform="scale(1.0281528,0.97261808)"
       gradientUnits="userSpaceOnUse">
      <stop
         id="stop22"
         offset="0%"
         stop-color="#F26D58" />
      <stop
         id="stop24-3"
         offset="100%"
         stop-color="#F9A03C" />
    </linearGradient>
    <linearGradient
       id="linearGradient-5"
       y2="121.3268"
       x2="300.62945"
       y1="6.4669924"
       x1="125.82687"
       gradientTransform="scale(0.95887522,1.0428886)"
       gradientUnits="userSpaceOnUse">
      <stop
         id="stop27"
         offset="0%"
         stop-color="#B84E51" />
      <stop
         id="stop29"
         offset="100%"
         stop-color="#F68E48" />
    </linearGradient>
    <linearGradient
       id="linearGradient-6"
       y2="395.51136"
       x2="66.386718"
       y1="236.93777"
       x1="60.120748"
       gradientTransform="scale(1.3814153,0.72389527)"
       gradientUnits="userSpaceOnUse">
      <stop
         id="stop32"
         offset="0%"
         stop-color="#F9A03C" />
      <stop
         id="stop34"
         offset="100%"
         stop-color="#F7974E" />
    </linearGradient>
    <radialGradient
       gradientUnits="userSpaceOnUse"
       gradientTransform="matrix(0.9001592,0.4355611,-0.681818,1.4090899,17.689406,-55.652801)"
       r="1.944545"
       fy="11.175352"
       fx="116.76101"
       cy="11.175352"
       cx="116.76101"
       id="radialGradient3184"
       xlink:href="#linearGradient3178" />
    <linearGradient
       id="linearGradient3178">
      <stop
         id="stop3180"
         offset="0"
         style="stop-color:#ffffff;stop-opacity:1;" />
      <stop
         id="stop3182"
         offset="1"
         style="stop-color:#ffffff;stop-opacity:0;" />
    </linearGradient>
    <filter
       height="1.5719056"
       y="-0.28595278"
       width="1.4702652"
       x="-0.2351326"
       id="filter3290">
      <feGaussianBlur
         id="feGaussianBlur3292"
         stdDeviation="0.38968136" />
    </filter>
    <radialGradient
       gradientUnits="userSpaceOnUse"
       gradientTransform="matrix(0.9522422,0.3053434,-1.5320271,4.7777695,136.75337,-365.38902)"
       r="1.98874"
       fy="86.620445"
       fx="119.06503"
       cy="86.620445"
       cx="119.06503"
       id="radialGradient3418"
       xlink:href="#linearGradient3178" />
    <filter
       height="1.2726663"
       y="-0.13633315"
       width="1.2335776"
       x="-0.11678882"
       id="filter3518">
      <feGaussianBlur
         id="feGaussianBlur3520"
         stdDeviation="0.19355217" />
    </filter>
    <radialGradient
       gradientUnits="userSpaceOnUse"
       gradientTransform="matrix(0.1669553,0.03524456,-0.05525814,0.2617608,88.020806,67.401344)"
       r="57.028141"
       fy="96.727608"
       fx="101.15124"
       cy="96.727608"
       cx="101.15124"
       id="radialGradient3315"
       xlink:href="#linearGradient3178" />
    <radialGradient
       gradientUnits="userSpaceOnUse"
       gradientTransform="matrix(0.9001592,0.4355611,-0.681818,1.4090899,19.277072,-55.364636)"
       r="1.944545"
       fy="11.175352"
       fx="116.76101"
       cy="11.175352"
       cx="116.76101"
       id="radialGradient92"
       xlink:href="#linearGradient3178" />
    <linearGradient
       gradientUnits="userSpaceOnUse"
       y2="29.53125"
       x2="116.0125"
       y1="-1.4687502"
       x1="49.262497"
       id="linearGradient3170"
       xlink:href="#linearGradient3178"
       gradientTransform="translate(-1.5876657,-0.28816529)" />
    <radialGradient
       r="14"
       fy="122"
       fx="30"
       cy="122"
       cx="30"
       gradientTransform="matrix(1,0,0,0.1428571,0,104.57143)"
       gradientUnits="userSpaceOnUse"
       id="radialGradient3149"
       xlink:href="#linearGradient3139" />
    <linearGradient
       id="linearGradient3139">
      <stop
         id="stop3141"
         offset="0"
         style="stop-color:#000000;stop-opacity:1;" />
      <stop
         id="stop3143"
         offset="1"
         style="stop-color:#000000;stop-opacity:0;" />
    </linearGradient>
    <filter
       height="1.4903226"
       y="-0.24516129"
       width="1.0700461"
       x="-0.035023041"
       id="filter3135">
      <feGaussianBlur
         id="feGaussianBlur3137"
         stdDeviation="0.40860215" />
    </filter>
    <radialGradient
       gradientUnits="userSpaceOnUse"
       gradientTransform="matrix(1,0,0,0.1428571,0,104.57143)"
       r="14"
       fy="122"
       fx="30"
       cy="122"
       cx="30"
       id="radialGradient3145"
       xlink:href="#linearGradient3139" />
    <linearGradient
       gradientTransform="translate(-146.54455,-0.28816529)"
       gradientUnits="userSpaceOnUse"
       y2="58.45406"
       x2="237.62236"
       y1="1.2132037"
       x1="213.9899"
       id="linearGradient3087"
       xlink:href="#linearGradient3178" />
    <radialGradient
       gradientUnits="userSpaceOnUse"
       gradientTransform="matrix(1,0,0,1.0450031,-277.58766,-3.2084443)"
       r="50.34375"
       fy="79.349312"
       fx="340"
       cy="79.349312"
       cx="340"
       id="radialGradient3095"
       xlink:href="#linearGradient3178" />
    <linearGradient
       gradientUnits="userSpaceOnUse"
       y2="57"
       x2="72.75"
       y1="124.5"
       x1="65.298004"
       id="linearGradient3336"
       xlink:href="#linearGradient3178"
       gradientTransform="translate(-1.5876657,-0.28816529)" />
    <filter
       id="filter3398">
      <feGaussianBlur
         id="feGaussianBlur3400"
         stdDeviation="0.52225998" />
    </filter>
    <radialGradient
       gradientUnits="userSpaceOnUse"
       gradientTransform="matrix(0.2363926,-0.1272488,0.168427,0.3128903,17.237715,13.828246)"
       r="57.028141"
       fy="20.172876"
       fx="29.527468"
       cy="15.017876"
       cx="27.965677"
       id="radialGradient3302"
       xlink:href="#linearGradient3178" />
    <linearGradient
       gradientTransform="translate(-1.5876657,0.71183471)"
       gradientUnits="userSpaceOnUse"
       y2="93.351768"
       x2="34.992661"
       y1="123.05025"
       x1="28.991379"
       id="linearGradient3584"
       xlink:href="#linearGradient3139" />
    <filter
       height="1.3858213"
       y="-0.19291067"
       width="1.3175745"
       x="-0.15878725"
       id="filter3734">
      <feGaussianBlur
         id="feGaussianBlur3736"
         stdDeviation="2.3871476" />
    </filter>
    <linearGradient
       gradientTransform="translate(61.698386,0.71183471)"
       y2="91.230446"
       x2="30.750019"
       y1="123.05025"
       x1="28.991379"
       gradientUnits="userSpaceOnUse"
       id="linearGradient3740"
       xlink:href="#linearGradient3139" />
    <radialGradient
       xlink:href="#linearGradient3178"
       id="radialGradient186"
       gradientUnits="userSpaceOnUse"
       gradientTransform="matrix(0.9001592,0.4355611,-0.681818,1.4090899,17.689406,-55.652801)"
       cx="116.76101"
       cy="11.175352"
       fx="116.76101"
       fy="11.175352"
       r="1.944545" />
  </defs>
  <path
     style="fill:url(#linearGradient3740);fill-opacity:1;fill-rule:evenodd;stroke:none;stroke-width:1px;stroke-linecap:butt;stroke-linejoin:miter;stroke-opacity:1;filter:url(#filter3734)"
     d="m 81.850936,93.710049 42.072864,1.414213 c -5.71754,17.875108 -21.22541,27.930118 -32.017614,27.098828 -8.67077,-0.66788 -14.17225,-7.6735 -10.05525,-28.513041 z"
     id="path3738" />
  <path
     id="path3568"
     d="m 35.181887,91.942282 16.263456,2.12132 C 46.447136,106.86809 42.110667,122.74315 27.051889,122.43136 7.6092423,122.0288 31.417947,99.739565 35.181887,91.942282 Z"
     style="fill:url(#linearGradient3584);fill-opacity:1;fill-rule:evenodd;stroke:none;stroke-width:1px;stroke-linecap:butt;stroke-linejoin:miter;stroke-opacity:1;filter:url(#filter3734)" />
  <path
     id="text2468"
     d="m 5.8498513,38.837697 c -0.273863,1.022069 0.134292,2.227127 1.045979,2.628176 1.054548,0.463894 2.68775,-0.01065 3.1903477,-0.881171 C 16.428384,29.59968 20.80821,27.641989 31.099315,27.641989 h 10.152364 l -5.738292,48.99619 c -0.882815,6.179701 -3.751969,11.035186 -11.255883,17.876989 -6.841802,6.179692 -8.828142,9.710962 -8.828142,14.566432 0,6.6211 5.296894,12.1387 12.138696,12.1387 6.841803,0 12.138704,-5.07619 15.007843,-14.56644 1.986331,-5.73829 5.076189,-28.250068 7.062513,-50.541112 l 2.648443,-28.470759 h 24.056689 c -2.64844,17.435565 -4.63478,41.271582 -4.63478,53.851669 0,24.718772 8.38676,39.726642 21.84966,39.726642 8.607444,0 16.332084,-5.95901 21.628954,-16.33207 2.5539,-5.107795 3.29575,-8.910224 4.25996,-16.237432 0.30829,-2.34277 -0.97561,-3.416555 -2.27952,-3.716705 -1.35921,-0.312881 -2.7708,1.102276 -3.39645,3.182972 -2.23484,7.432267 -5.69308,11.474285 -11.8262,11.474285 -4.414074,0 -9.048854,-3.08985 -11.476594,-7.724625 -1.98633,-3.972656 -2.64845,-7.503928 -2.64845,-14.787139 0,-16.773455 1.10352,-37.298909 2.64845,-49.437597 l 25.881124,0.06469 c 1.19246,0 2.06264,-0.659458 2.06264,-1.994845 V 10.553079 c 0,-1.8434573 -1.1168,-2.8412443 -2.97383,-2.8412443 H 42.412334 c -11.917977,0 -17.492726,1.83247 -23.893122,8.0121613 -5.742753,5.74276 -9.1983567,11.676133 -12.6693607,23.113701 z"
     style="font-style:normal;font-weight:bold;font-size:28px;font-family:Symbol;text-align:justify;text-anchor:start;fill:#000000;fill-opacity:1;stroke:none;stroke-width:1px;stroke-linecap:butt;stroke-linejoin:miter;stroke-opacity:1" />
  <path
     id="path3294"
     d="m 40.256084,7.7430847 c -10.45601,0.223952 -15.749629,2.175289 -21.75,7.9687503 -1.783978,1.78398 -3.338427,3.613688 -4.75,5.59375 1.462431,1.046635 3.21875,2.28125 3.21875,2.28125 5.775764,-8.688877 13.609992,-12.23736 23.15625,-11.5 l 0.3125,-4.3437503 c -0.06095,0.0012 -0.126898,-0.0013 -0.1875,0 z"
     style="font-style:normal;font-weight:bold;font-size:28px;font-family:Symbol;text-align:justify;text-anchor:start;opacity:0.6875;fill:url(#radialGradient3302);fill-opacity:1;stroke:none;stroke-width:1px;stroke-linecap:butt;stroke-linejoin:miter;stroke-opacity:1" />
  <path
     id="path3328"
     d="m 42.412334,11.711835 c -5.78615,0 -11.309862,0.702865 -13.966492,1.625 -2.65663,0.922135 -4.68151,2.316411 -7.6875,5.21875 -3.25596,3.255965 -5.62614,6.556865 -7.75,11.03125 1.04103,-1.000123 2.1138,-1.90502 3.28125,-2.65625 4.0228,-2.588587 8.61631,-3.28125 14.21875,-3.28125 l 11.403992,0.0625 h 4.5 l -0.53125,4.46875 c -2.889007,15.556709 -5.073433,32.05286 -6.966492,48.9375 l -0.03125,0.03125 v 0.0625 c -1.01292,7.090459 -4.67496,13.115399 -12.5,20.25 h -0.03125 v 0.03125 c -3.28255,2.964875 -5.20393,5.145465 -6.21875,6.843745 -1.01482,1.69828 -1.28125,2.86772 -1.28125,4.75 0,4.48776 3.43374,8.125 8.125,8.125 2.43165,0 4.33079,-0.76736 6.21875,-2.59375 1.88796,-1.82639 3.67433,-4.84346 4.96875,-9.125 l 0.03125,-0.0625 0.03125,-0.0937 c 0.67398,-1.94704 2.08605,-9.231229 3.34375,-18.281245 1.2577,-9.050016 2.51254,-20.231043 3.5,-31.3125 l 3.903992,-28.4063 0.34375,-3.625 h 3.625 22.875002 4.65625 l -0.6875,4.59375 c -2.61174,17.194017 -4.65399,41.02847 -4.65399,53.1875 0,11.907007 2.08493,21.231745 5.375,27.187495 3.29007,5.95575 7.22364,8.53125 12.46875,8.53125 6.76127,0 13.199784,-4.60215 18.062504,-14.125 0.92907,-1.85815 1.55031,-3.467309 2.09375,-5.124995 -2.77587,3.579395 -7.12955,5.624995 -11.78125,5.624995 -6.280734,0 -11.940374,-4.03389 -15.000004,-9.874995 l -0.0312,-0.03125 v -0.03125 c -2.25134,-4.502686 -3.09375,-9.03686 -3.09375,-16.5625 10e-6,-16.948893 1.16163,-37.412742 2.74774,-49.875 l 0.4375,-3.5 h 3.53125 24.468754 v -12 z"
     style="font-style:normal;font-weight:bold;font-size:28px;font-family:Symbol;text-align:justify;text-anchor:start;opacity:0.75271738;fill:none;fill-opacity:1;stroke:url(#linearGradient3336);stroke-width:1px;stroke-linecap:butt;stroke-linejoin:miter;stroke-opacity:1;filter:url(#filter3398)" />
  <path
     style="font-style:normal;font-weight:bold;font-size:28px;font-family:Symbol;text-align:justify;text-anchor:start;opacity:0.52717393;fill:url(#radialGradient3095);fill-opacity:1;stroke:none;stroke-width:1px;stroke-linecap:butt;stroke-linejoin:miter;stroke-opacity:1"
     d="m 42.412334,11.711835 c -5.78615,0 -11.309862,0.702865 -13.966492,1.625 -2.65663,0.922135 -4.68151,2.316411 -7.6875,5.21875 -3.25596,3.255965 -5.62614,6.556865 -7.75,11.03125 1.04103,-1.000123 2.1138,-1.90502 3.28125,-2.65625 4.0228,-2.588587 8.61631,-3.28125 14.21875,-3.28125 l 11.403992,0.0625 h 4.5 l -0.53125,4.46875 c -2.889007,15.556709 -5.073433,32.05286 -6.966492,48.9375 l -0.03125,0.03125 v 0.0625 c -1.01292,7.090459 -4.67496,13.115399 -12.5,20.25 h -0.03125 v 0.03125 c -3.28255,2.964875 -5.20393,5.145465 -6.21875,6.843745 -1.01482,1.69828 -1.28125,2.86772 -1.28125,4.75 0,4.48776 3.43374,8.125 8.125,8.125 2.43165,0 4.33079,-0.76736 6.21875,-2.59375 1.88796,-1.82639 3.67433,-4.84346 4.96875,-9.125 l 0.03125,-0.0625 0.03125,-0.0937 c 0.67398,-1.94704 2.08605,-9.231229 3.34375,-18.281245 1.2577,-9.050016 2.51254,-20.231043 3.5,-31.3125 l 3.903992,-28.4063 0.34375,-3.625 h 3.625 22.875002 4.65625 l -0.6875,4.59375 c -2.61174,17.194017 -4.65399,41.02847 -4.65399,53.1875 0,11.907007 2.08493,21.231745 5.375,27.187495 3.29007,5.95575 7.22364,8.53125 12.46875,8.53125 6.76127,0 13.199784,-4.60215 18.062504,-14.125 0.92907,-1.85815 1.55031,-3.467309 2.09375,-5.124995 -2.77587,3.579395 -7.12955,5.624995 -11.78125,5.624995 -6.280734,0 -11.940374,-4.03389 -15.000004,-9.874995 l -0.0312,-0.03125 v -0.03125 c -2.25134,-4.502686 -3.09375,-9.03686 -3.09375,-16.5625 10e-6,-16.948893 1.16163,-37.412742 2.74774,-49.875 l 0.4375,-3.5 h 3.53125 24.468754 v -12 z"
     id="path3078" />
  <path
     id="path2473"
     d="m 42.412334,11.711835 c -5.78615,0 -11.081511,0.702865 -13.738141,1.625 -2.65663,0.922135 -4.68151,2.316411 -7.6875,5.21875 -3.25596,3.255965 -5.62614,6.556865 -7.75,11.03125 1.04103,-1.000123 2.1138,-1.90502 3.28125,-2.65625 4.0228,-2.588587 8.61631,-3.28125 14.21875,-3.28125 l 11.175641,0.0625 h 4.5 l -0.53125,4.46875 -2.975641,18.53125 c 1.17403,-0.174345 2.34026,-0.364589 3.5,-0.5625 l 2.569391,-18.8125 0.34375,-3.625 h 3.625 22.875002 4.65625 l -0.6875,4.59375 c -0.40914,2.693501 -0.61511,5.517158 -0.98814,8.46875 2.25705,-0.951683 4.48369,-1.948964 6.625,-3 0.22672,-2.363082 0.29649,-4.565616 0.55064,-6.5625 l 0.4375,-3.5 h 3.53125 12.468754 c 4.34933,-3.218365 8.56937,-7.03902 12,-10.71875 v -1.28125 z"
     style="font-style:normal;font-weight:bold;font-size:28px;font-family:Symbol;text-align:justify;text-anchor:start;opacity:0.6875;fill:url(#linearGradient3087);fill-opacity:1;stroke:none;stroke-width:1px;stroke-linecap:butt;stroke-linejoin:miter;stroke-opacity:1" />
  <ellipse
     transform="matrix(0.6071429,0,0,1,9.6980483,-1.2881653)"
     id="path3097"
     style="opacity:1;fill:url(#radialGradient3145);fill-opacity:1;stroke:none;stroke-width:8;stroke-linecap:round;stroke-linejoin:round;stroke-miterlimit:4;stroke-dasharray:none;stroke-dashoffset:4.1500001;stroke-opacity:1;filter:url(#filter3135)"
     cx="30"
     cy="122"
     rx="14"
     ry="2" />
  <ellipse
     transform="matrix(0.7678571,0,0,1,70.176616,-1.2881653)"
     style="opacity:1;fill:url(#radialGradient3149);fill-opacity:1;stroke:none;stroke-width:8;stroke-linecap:round;stroke-linejoin:round;stroke-miterlimit:4;stroke-dasharray:none;stroke-dashoffset:4.1500001;stroke-opacity:1;filter:url(#filter3135)"
     id="path3147"
     cx="30"
     cy="122"
     rx="14"
     ry="2" />
  <path
     id="path3151"
     d="m 42.362332,11.680585 c -5.78615,0 -11.09337,0.702865 -13.75,1.625 -2.65663,0.922135 -4.68151,2.316411 -7.6875,5.21875 -3.25596,3.255966 -5.62614,6.556865 -7.75,11.03125 0.29807,-0.286351 0.6015,-0.543133 0.90625,-0.8125 1.89665,-3.584559 4.04355,-6.418542 6.84375,-9.21875 3.00599,-2.902338 5.03087,-4.296615 7.6875,-5.21875 2.65663,-0.922135 7.96385,-1.625 13.75,-1.625 h 70.968758 c -3.39842,3.621525 -7.53729,7.367736 -11.8125,10.53125 l -11.718754,0.25 h -3.53125 l -0.4375,3.5 c -0.25415,1.996884 -1.08579,3.949418 -1.3125,6.3125 -1.80712,0.887001 -3.66688,1.747165 -5.5625,2.5625 l -0.21875,0.90625 0.0937,-0.03125 -0.0312,0.15625 c 2.25705,-0.951681 4.48369,-1.948964 6.625,-3 l 0.875,-10.375 16.125004,0.3125 c 4.34934,-3.218365 8.56937,-7.03902 12,-10.71875 v -1.28125 h -0.0625 v -0.125 z m 3.15625,33.96875 c -0.79671,0.135959 -1.60272,0.249176 -2.40625,0.375 l -0.25,0.65625 c 0.02028,-0.003 0.04257,0.0044 0.0625,0 l -0.03125,0.125 c 1.17402,-0.174343 2.34026,-0.364589 3.5,-0.5625 z"
     style="font-style:normal;font-weight:bold;font-size:28px;font-family:Symbol;text-align:justify;text-anchor:start;opacity:0.6875;fill:url(#linearGradient3170);fill-opacity:1;stroke:none;stroke-width:1px;stroke-linecap:butt;stroke-linejoin:miter;stroke-opacity:1" />
  <path
     id="path3176"
     d="m 114.55463,8.2107877 -0.0884,3.2703683 3.97748,-1.325824 C 117.54847,9.2779397 117.0171,8.1926187 114.55462,8.2107877 Z"
     style="opacity:0.6875;fill:url(#radialGradient186);fill-opacity:1;fill-rule:evenodd;stroke:none;stroke-width:1px;stroke-linecap:butt;stroke-linejoin:miter;stroke-opacity:1;filter:url(#filter3290)" />
  <path
     id="path3307"
     d="m 89.256086,88.961835 -2.8125,5.15625 c 3.9291,6.379635 11.22022,12.274275 21.843754,7.968745 l 0.3125,-4.624995 c -1.81769,1.40032 -4.04297,2.125 -6.65625,2.125 -4.414074,-2e-6 -9.041014,-3.083975 -11.468754,-7.71875 -0.48581,-0.971623 -0.88168,-1.926084 -1.21875,-2.90625 z"
     style="font-style:normal;font-weight:bold;font-size:28px;font-family:Symbol;text-align:justify;text-anchor:start;opacity:0.76902173;fill:url(#radialGradient3315);fill-opacity:1;stroke:none;stroke-width:1px;stroke-linecap:butt;stroke-linejoin:miter;stroke-opacity:1" />
  <path
     id="path3402"
     d="m 114.99657,86.611253 -0.42417,9.084709 4.40165,-8.377602 c -1.02978,-1.913313 -2.24436,-2.779415 -3.97748,-0.707107 z"
     style="fill:url(#radialGradient3418);fill-opacity:1;fill-rule:evenodd;stroke:none;stroke-width:1px;stroke-linecap:butt;stroke-linejoin:miter;stroke-opacity:1;filter:url(#filter3518)" />
  <path
     style="opacity:0.6875;fill:url(#radialGradient3184);fill-opacity:1;fill-rule:evenodd;stroke:none;stroke-width:1px;stroke-linecap:butt;stroke-linejoin:miter;stroke-opacity:1;filter:url(#filter3290)"
     d="m 114.55463,8.2107877 -0.0884,3.2703683 3.97748,-1.325824 C 117.54847,9.2779397 117.0171,8.1926187 114.55462,8.2107877 Z"
     id="path3558" />
</svg>
