<?xml version="1.0" encoding="UTF-8" standalone="no"?>
<svg
   xmlns:dc="http://purl.org/dc/elements/1.1/"
   xmlns:cc="http://creativecommons.org/ns#"
   xmlns:rdf="http://www.w3.org/1999/02/22-rdf-syntax-ns#"
   xmlns:svg="http://www.w3.org/2000/svg"
   xmlns="http://www.w3.org/2000/svg"
   height="128"
   width="128"
   version="1.1"
   id="svg3145">
  <metadata
     id="metadata3151">
    <rdf:RDF>
      <cc:Work
         rdf:about="">
        <dc:format>image/svg+xml</dc:format>
        <dc:type
           rdf:resource="http://purl.org/dc/dcmitype/StillImage" />
        <dc:title></dc:title>
      </cc:Work>
    </rdf:RDF>
  </metadata>
  <defs
     id="defs3149">
    <clipPath
       id="clipPath18"
       clipPathUnits="userSpaceOnUse">
      <path
         id="path20"
         d="m 258.16,174.727 c -0.887,-28.672 -1.769,-62.207 -1.328,-101.3286 l -1.324,0 c -9.285,33.1446 -21.66,70.7816 -31.387,98.3596 l -29.617,87.539 -62.332,0 -25.195,-87.168 C 99.4648,144.922 90.1797,107.676 83.5508,73.3984 l -0.8867,0 C 80.8984,108.789 79.1328,146.055 77.8008,174.727 l -4.418,89.785 -73.3828,0 18.125,-251.094 107.418,0 19.891,67.4218 c 7.961,27.9492 16.796,61.4842 22.988,92.0312 l 1.769,0 c 8.399,-30.547 18.125,-65.937 26.961,-92.4022 l 22.106,-67.0508 105.207,0 15.027,251.094 -77.797,0 -3.535,-89.785 z" />
    </clipPath>
    <linearGradient
       id="linearGradient22"
       spreadMethod="pad"
       gradientTransform="matrix(-4.97e-6,113.622,113.622,4.97e-6,16.9746,5.4072)"
       gradientUnits="userSpaceOnUse"
       y2="0"
       x2="1"
       y1="0"
       x1="0">
      <stop
         id="stop24"
         offset="0"
         style="stop-opacity:1;stop-color:#ffffff" />
      <stop
         id="stop26"
         offset="1"
         style="stop-opacity:1;stop-color:#bab9b7" />
    </linearGradient>
    <clipPath
       id="clipPath34"
       clipPathUnits="userSpaceOnUse">
      <path
         id="path36"
         d="m 484.043,180.684 c -32.27,0 -50.836,7.832 -50.836,23.847 0,11.543 9.281,17.52 22.547,17.52 11.492,0 23.871,-6.699 27.406,-16.758 0.883,-2.988 0.883,-6.348 0.883,-9.688 l 0,-14.921 z m 77.359,39.121 c 0,18.261 0.883,35.39 3.536,44.707 l -71.614,0 -4.418,-16.016 -1.328,0 c -15.469,14.531 -37.129,20.117 -60.562,20.117 -44.203,0 -71.61,-27.187 -71.61,-57.734 0,-49.18 52.16,-70.801 125.985,-71.172 l 0,-1.484 c 0,-7.442 -6.629,-15.645 -35.368,-15.645 -22.98,0 -47.296,6.699 -61.445,13.789 L 370.434,93.5156 c 14.144,-5.957 45.093,-16.4062 90.179,-16.4062 74.707,0 100.789,35.0196 100.789,80.8596 l 0,61.836 z" />
    </clipPath>
    <linearGradient
       id="linearGradient38"
       spreadMethod="pad"
       gradientTransform="matrix(-4.97e-6,113.626,113.626,4.97e-6,46.0171,5.4062)"
       gradientUnits="userSpaceOnUse"
       y2="0"
       x2="1"
       y1="0"
       x1="0">
      <stop
         id="stop40"
         offset="0"
         style="stop-opacity:1;stop-color:#ffffff" />
      <stop
         id="stop42"
         offset="1"
         style="stop-opacity:1;stop-color:#bab9b7" />
    </linearGradient>
    <clipPath
       id="clipPath50"
       clipPathUnits="userSpaceOnUse">
      <path
         id="path52"
         d="m 684.73,29.0625 0,52.1484 45.094,0 0,49.1801 -45.094,0 0,52.539 c 0,21.992 6.192,30.918 25.204,30.918 9.281,0 12.375,0 19.007,-1.485 l 0,51.035 c -9.289,2.618 -26.968,5.215 -47.3,5.215 -23.426,0 -42.879,-7.07 -54.375,-16.758 -13.262,-11.171 -20.332,-29.433 -20.332,-57.382 l 0,-64.082 -26.961,0 0,-49.1801 26.961,0 0,-34.6289 77.796,-17.5195 z" />
    </clipPath>
    <linearGradient
       id="linearGradient54"
       spreadMethod="pad"
       gradientTransform="matrix(-4.97e-6,113.622,113.622,4.97e-6,65.4897,5.4072)"
       gradientUnits="userSpaceOnUse"
       y2="0"
       x2="1"
       y1="0"
       x1="0">
      <stop
         id="stop56"
         offset="0"
         style="stop-opacity:1;stop-color:#ffffff" />
      <stop
         id="stop58"
         offset="1"
         style="stop-opacity:1;stop-color:#bab9b7" />
    </linearGradient>
    <clipPath
       id="clipPath66"
       clipPathUnits="userSpaceOnUse">
      <path
         id="path68"
         d="m 766.953,0 79.57,0 0,100.586 0.879,0 c 7.52,-7.4415 15.918,-13.3985 25.645,-17.129 9.726,-4.1015 21.66,-6.3476 33.144,-6.3476 49.075,0 76.036,29.4336 76.036,81.2306 l 0,106.172 -79.571,0 0,-98.711 c 0,-21.621 -8.398,-34.649 -28.281,-34.649 -15.039,0 -22.109,7.442 -25.645,14.512 -1.765,2.988 -2.207,7.832 -2.207,10.82 l 0,108.028 -79.57,0 0,-264.512 z" />
    </clipPath>
    <linearGradient
       id="linearGradient70"
       spreadMethod="pad"
       gradientTransform="matrix(-4.97e-6,113.622,113.622,4.97e-6,87.459,5.4072)"
       gradientUnits="userSpaceOnUse"
       y2="0"
       x2="1"
       y1="0"
       x1="0">
      <stop
         id="stop72"
         offset="0"
         style="stop-opacity:1;stop-color:#ffffff" />
      <stop
         id="stop74"
         offset="1"
         style="stop-opacity:1;stop-color:#bab9b7" />
    </linearGradient>
    <clipPath
       id="clipPath82"
       clipPathUnits="userSpaceOnUse">
      <path
         id="path84"
         d="m 1091.42,13.418 80.01,0 0,154.98 c 0,73.028 -41.55,100.215 -113.17,100.215 -16.35,0 -38.01,-1.855 -53.05,-5.957 l 8.85,-54.023 c 9.73,2.246 22.1,4.101 34.92,4.101 25.64,0 42.44,-9.687 42.44,-44.336 l 0,-154.98 z" />
    </clipPath>
    <linearGradient
       id="linearGradient86"
       spreadMethod="pad"
       gradientTransform="matrix(-4.97e-6,113.622,113.622,4.97e-6,108.832,5.4072)"
       gradientUnits="userSpaceOnUse"
       y2="0"
       x2="1"
       y1="0"
       x1="0">
      <stop
         id="stop88"
         offset="0"
         style="stop-opacity:1;stop-color:#ffffff" />
      <stop
         id="stop90"
         offset="1"
         style="stop-opacity:1;stop-color:#bab9b7" />
    </linearGradient>
    <clipPath
       id="clipPath98"
       clipPathUnits="userSpaceOnUse">
      <path
         id="path100"
         d="m 1315.98,180.684 c -32.28,0 -50.84,7.832 -50.84,23.847 0,11.543 9.27,17.52 22.54,17.52 11.5,0 23.87,-6.699 27.41,-16.758 0.89,-2.988 0.89,-6.348 0.89,-9.688 l 0,-14.921 z m 77.35,39.121 c 0,18.261 0.89,35.39 3.54,44.707 l -71.62,0 -4.41,-16.016 -1.33,0 c -15.47,14.531 -37.13,20.117 -60.56,20.117 -44.2,0 -71.62,-27.187 -71.62,-57.734 0,-49.18 52.16,-70.801 125.99,-71.172 l 0,-1.484 c 0,-7.442 -6.63,-15.645 -35.37,-15.645 -22.98,0 -47.3,6.699 -61.45,13.789 l -14.14,-42.8514 c 14.14,-5.957 45.1,-16.4062 90.18,-16.4062 74.71,0 100.79,35.0196 100.79,80.8596 l 0,61.836 z" />
    </clipPath>
    <linearGradient
       id="linearGradient102"
       spreadMethod="pad"
       gradientTransform="matrix(-4.97e-6,113.626,113.626,4.97e-6,129.21,5.4062)"
       gradientUnits="userSpaceOnUse"
       y2="0"
       x2="1"
       y1="0"
       x1="0">
      <stop
         id="stop104"
         offset="0"
         style="stop-opacity:1;stop-color:#ffffff" />
      <stop
         id="stop106"
         offset="1"
         style="stop-opacity:1;stop-color:#bab9b7" />
    </linearGradient>
    <clipPath
       id="clipPath114"
       clipPathUnits="userSpaceOnUse">
      <path
         id="path116"
         d="m 1427.35,48.2813 c -8.71,0 -17.37,3.3085 -25.63,11.9531 -17.5,18.3398 -4.04,36.0156 19.82,40.4686 31.6,5.899 35.49,7.832 49.92,21.27 12.71,11.777 17.06,21.757 17.06,21.757 0,0 -70.84,46.387 -70.33,56.407 0.24,4.57 5.51,5.726 10.78,5.726 4.01,0 8.02,-0.668 9.82,-1.011 -3.59,3.66 -14.31,20.558 -2.72,30.421 13.19,11.184 23.99,13.786 34.62,13.786 5.4,0 10.75,-0.668 16.35,-1.227 16.63,-1.641 30.98,-19.766 30.52,-37.48 -0.2,-6.582 2.49,-20.977 11.4,-29.375 1.66,-1.551 3.81,-2.227 6.32,-2.227 11.01,0 28.83,12.992 41.05,21.934 25.55,18.632 17.24,33.789 32.71,41.621 7.27,3.668 14.06,5.504 20.95,5.504 7.78,0 15.68,-2.336 24.52,-7.008 16.69,-8.828 28.19,-24.238 5.37,-45.449 -9.22,-8.594 -42.17,-4.727 -65.92,-20.039 -12.92,-8.321 -19.25,-16.25 -19.25,-16.25 0,0 38.2,-30.684 56.04,-43.985 14.4,-10.781 17.43,-13.867 11.64,-17.5194 -1.05,-0.6602 -2.85,-0.9297 -5.09,-0.9297 -10.09,0 -29.1,5.4801 -29.1,5.4801 0,0 22.25,-11.7965 15.91,-24.9801 -2.93,-6.0937 -10.65,-15.4101 -26.24,-20.1562 -3.43,-1.0508 -6.98,-1.5508 -10.53,-1.5508 -12.51,0 -24.85,6.2617 -30.97,16.6289 -7.85,13.2812 -3.84,26.2305 -16.6,34.0622 -4.44,2.723 -9.54,4.047 -15.2,4.047 -10.64,0 -23.28,-4.676 -37.36,-13.5584 -21.58,-13.6133 -16.43,-31.7578 -37.25,-42.1289 -7.41,-3.6836 -15.03,-6.1914 -22.61,-6.1914" />
    </clipPath>
    <linearGradient
       id="linearGradient118"
       spreadMethod="pad"
       gradientTransform="matrix(-3.95e-6,90.3407,90.3407,3.95e-6,153.32,6.4716)"
       gradientUnits="userSpaceOnUse"
       y2="0"
       x2="1"
       y1="0"
       x1="0">
      <stop
         id="stop120"
         offset="0"
         style="stop-opacity:1;stop-color:#ffffff" />
      <stop
         id="stop122"
         offset="1"
         style="stop-opacity:1;stop-color:#c3c2c0" />
    </linearGradient>
    <clipPath
       id="clipPath130"
       clipPathUnits="userSpaceOnUse">
      <path
         id="path132"
         d="m 0,0 1672.66,0 0,574 L 0,574 0,0 z" />
    </clipPath>
    <clipPath
       id="clipPath3650"
       clipPathUnits="userSpaceOnUse">
      <rect
         y="-1.7164752"
         x="-2.2068965"
         height="129.71648"
         width="137.80843"
         id="rect3652"
         style="fill:#f4f4f4;fill-opacity:1;stroke:none" />
    </clipPath>
  </defs>
  <g
     transform="matrix(2.0505668,0,0,2.0505668,-2.9067367,-1.48043)"
     id="g2183">
    <ellipse
       style="fill:none;fill-opacity:1;fill-rule:evenodd;stroke:#666666;stroke-width:3.79999995;stroke-linecap:butt;stroke-linejoin:miter;stroke-miterlimit:4;stroke-dasharray:none;stroke-opacity:1"
       id="path2196"
       transform="matrix(0.8797636,-0.5165127,0.5036526,0.878277,-23.68962,10.736573)"
       cx="36.32761"
       cy="45.88039"
       rx="27.842329"
       ry="20.240932" />
    <g
       id="g2176">
      <ellipse
         transform="translate(-35.885669,3.3587572)"
         id="path4138"
         style="fill:#9999ff;fill-opacity:1;stroke:#010100;stroke-width:1;stroke-miterlimit:4;stroke-dasharray:none;stroke-opacity:1"
         cx="52.591068"
         cy="49.681087"
         rx="5.2149124"
         ry="5.3033009" />
      <ellipse
         transform="translate(-44.547728,-22.273864)"
         style="fill:#9999ff;fill-opacity:1;stroke:#010100;stroke-width:1;stroke-miterlimit:4;stroke-dasharray:none;stroke-opacity:1"
         id="path5109"
         cx="52.591068"
         cy="49.681087"
         rx="5.2149124"
         ry="5.3033009" />
      <ellipse
         transform="translate(-7.2478445,-3.0052044)"
         id="path5111"
         style="fill:#9999ff;fill-opacity:1;stroke:#010100;stroke-width:1;stroke-miterlimit:4;stroke-dasharray:none;stroke-opacity:1"
         cx="52.591068"
         cy="49.681087"
         rx="5.2149124"
         ry="5.3033009" />
      <ellipse
         transform="translate(4.77297,-26.516505)"
         style="fill:#9999ff;fill-opacity:1;stroke:#010100;stroke-width:1;stroke-miterlimit:4;stroke-dasharray:none;stroke-opacity:1"
         id="path5113"
         cx="52.591068"
         cy="49.681087"
         rx="5.2149124"
         ry="5.3033009" />
      <ellipse
         transform="translate(-21.566757,-39.774757)"
         id="path5115"
         style="fill:#9999ff;fill-opacity:1;stroke:#010100;stroke-width:1;stroke-miterlimit:4;stroke-dasharray:none;stroke-opacity:1"
         cx="52.591068"
         cy="49.681087"
         rx="5.2149124"
         ry="5.3033009" />
    </g>
  </g>
</svg>
